Trabajo Práctico Final
…
library(glmnet)
library(readxl)
library(ggplot2)
library(tidyverse)

body <- read_excel("body.xls", col_names=FALSE)
nombres_col <- c("BIAC","BIIL","BITRO","CHEST1","CHEST2","ELBOW","WRIST",
"KNEE","ANKLE","SHOUL","CHESTG","WAISTG","NAVEL","HIP","GLUTE","BICEP",
"FLOREA","KNEEG","CALF","ANKLEG","WRISTG","AGE","WEIG","HEIG","GEN")

colnames(body)<- (nombres_col)
body

## # A tibble: 507 × 25
##     BIAC  BIIL BITRO CHEST1 CHEST2 ELBOW WRIST  KNEE ANKLE SHOUL CHESTG WAISTG
##    <dbl> <dbl> <dbl>  <dbl>  <dbl> <dbl> <dbl> <dbl> <dbl> <dbl>  <dbl>  <dbl>
##  1  42.9  26    31.5   17.7   28    13.1  10.4  18.8  14.1  106.   89.5   71.5
##  2  43.7  28.5  33.5   16.9   30.8  14    11.8  20.6  15.1  110.   97     79  
##  3  40.1  28.2  33.3   20.9   31.7  13.9  10.9  19.7  14.1  115.   97.5   83.2
##  4  44.3  29.9  34     18.4   28.2  13.9  11.2  20.9  15    104.   97     77.8
##  5  42.5  29.9  34     21.5   29.4  15.2  11.6  20.7  14.9  108.   97.5   80  
##  6  43.3  27    31.5   19.6   31.3  14    11.5  18.8  13.9  120.   99.9   82.5
##  7  43.5  30    34     21.9   31.7  16.1  12.5  20.8  15.6  124.  107.    82  
##  8  44.4  29.8  33.2   21.8   28.8  15.1  11.9  21    14.6  120.  102.    76.8
##  9  43.5  26.5  32.1   15.5   27.5  14.1  11.2  18.9  13.2  111    91     68.5
## 10  42    28    34     22.5   28    15.6  12    21.1  15    120.   93.5   77.5
## # ℹ 497 more rows
## # ℹ 13 more variables: NAVEL <dbl>, HIP <dbl>, GLUTE <dbl>, BICEP <dbl>,
## #   FLOREA <dbl>, KNEEG <dbl>, CALF <dbl>, ANKLEG <dbl>, WRISTG <dbl>,
## #   AGE <dbl>, WEIG <dbl>, HEIG <dbl>, GEN <dbl>
…
